{
  "message": "Bones!",
  "elements": {
    "list_items": [
      {
        "title": "List Item",
        "text": "Lorem ipsum dolor sit amet, consectetur adipisicing elit. At eum incidunt odio quasi. Aliquid dolores, est excepturi quaerat quas reprehenderit suscipit. Aut commodi distinctio ex ipsa officiis optio, soluta ullam. Accusantium at consectetur consequatur, cumque delectus dignissimos dolorem eaque eius facilis fuga fugit ipsa maiores modi molestias natus nihil nulla officia quasi ratione sed sunt voluptate voluptatum. A consequuntur ducimus eaque impedit ipsam natus nihil nisi obcaecati omnis, possimus provident quibusdam quis quos repellendus sed temporibus velit. Accusantium ad amet aperiam commodi consequuntur distinctio dolorum ducimus enim error illum inventore ipsum maiores molestiae mollitia, nostrum placeat quaerat qui quibusdam ratione rerum velit voluptate voluptates! Commodi doloremque error est ipsam iure, magnam odit quod rerum suscipit veritatis! Provident reprehenderit sunt tempora.",
        "icon": "wordpress",
        "images":
        {
          "thumbnail": "http://via.placeholder.com/768x432",
          "big_image": "http://via.placeholder.com/1920x1080",
          "content_images": [
            "http://via.placeholder.com/1280x720"
          ]
        },
        "link": "article.html"
      }
    ],
    "features": [
      {
        "title": "Fast Online Support",
        "text": "Praesent turpis mauris, aliquet id dolor Gravida adipiscing lectus ut rutrum Aenean at posuere risus.",
        "icon": "wordpress",
        "link": "features.html"
      },
      {
        "title": "Online Security",
        "text": "Praesent turpis mauris, aliquet id dolor Gravida adipiscing lectus ut rutrum Aenean at posuere risus.",
        "icon": "wordpress",
        "link": "features.html"
      },
      {
        "title": "Best Lorem Ipsum",
        "text": "Praesent turpis mauris, aliquet id dolor Gravida adipiscing lectus ut rutrum Aenean at posuere risus.",
        "icon": "wordpress",
        "link": "features.html"
      }
    ]
  }
}

